{
    "account": "gyftieassert",
    "domain": "https://telos.gyftie.org",
    "appmeta": "https://telos.gyftie.org/app-metadata.json#95c97fb880af2f9825126c61d363746c602ab637f96c58352373241b63ec0c3c",
    "whitelist": [
        {
            "contract": "eosio.token",
            "action": ""
        },
        {
            "contract": "gyftietokens",
            "action": ""
        },
        {
            "contract": "gftorderbook",
            "action": ""
        },
        {
            "contract": "gyftieassets",
            "action": ""
        },
        {
            "contract": "11gyftienoop",
            "action": ""
        }
    ]
}